Rewrite-R-ecology-lesson: Working with data
…
One of the most important skills for working with data in R is the ability to manipulate, modify, and reshape data. The dplyr and tidyr packages in the tidyverse provide a series of powerful functions for many common data manipulation tasks.

We’ll start off with two of the most commonly used dplyr functions: select(), which selects certain columns of a data.frame, and filter(), which filters out rows according to certain criteria.

Callout

Between select() and filter(), it can be hard to remember which operates on columns and which operates on rows. select() has a c for columns and filter() has an r for rows.

select()

To use the select() function, the first argument is the name of the data.frame, and the rest of the arguments are unquoted names of the columns you want:

select(surveys, plot_id, species_id, hindfoot_length)

# A tibble: 16,878 × 3
   plot_id species_id hindfoot_length
     <dbl> <chr>                <dbl>
 1       2 NL                      32
 2       3 NL                      33
 3       2 DM                      37
 4       7 DM                      36
 5       3 DM                      35
 6       1 PF                      14
 7       2 PE                      NA
 8       1 DM                      37
 9       1 DM                      34
10       6 PF                      20
# … with 16,868 more rows

To select all columns except specific columns, put a - in front of the column you want to exclude:

select(surveys, -record_id, -year)

# A tibble: 16,878 × 11
   month   day plot_id species_id sex   hindfoot_length weight genus       species
   <dbl> <dbl>   <dbl> <chr>      <chr>           <dbl>  <dbl> <chr>       <chr>  
 1     7    16       2 NL         M                  32     NA Neotoma     albigu…
 2     7    16       3 NL         M                  33     NA Neotoma     albigu…
 3     7    16       2 DM         F                  37     NA Dipodomys   merria…
 4     7    16       7 DM         M                  36     NA Dipodomys   merria…
 5     7    16       3 DM         M                  35     NA Dipodomys   merria…
 6     7    16       1 PF         M                  14     NA Perognathus flavus 
 7     7    16       2 PE         F                  NA     NA Peromyscus  eremic…
 8     7    16       1 DM         M                  37     NA Dipodomys   merria…
 9     7    16       1 DM         F                  34     NA Dipodomys   merria…
10     7    16       6 PF         F                  20     NA Perognathus flavus 
# … with 16,868 more rows, and 2 more variables: taxa <chr>, plot_type <chr>

select() also works with numeric vectors for the order of the columns. To select the 3rd, 4th, 5th, and 10th columns, we could run the following code:

select(surveys, c(3:5, 10))

# A tibble: 16,878 × 4
     day  year plot_id genus      
   <dbl> <dbl>   <dbl> <chr>      
 1    16  1977       2 Neotoma    
 2    16  1977       3 Neotoma    
 3    16  1977       2 Dipodomys  
 4    16  1977       7 Dipodomys  
 5    16  1977       3 Dipodomys  
 6    16  1977       1 Perognathus
 7    16  1977       2 Peromyscus 
 8    16  1977       1 Dipodomys  
 9    16  1977       1 Dipodomys  
10    16  1977       6 Perognathus
# … with 16,868 more rows

You should be careful when using this method, since you are being less explicit about which columns you want. However, it can be useful if you have a data.frame with many columns and you don’t want to type out too many names.

Finally, you can select columns based on whether they match a certain criteria by using the where() function. If we want all numeric columns, we can ask to select all the columns where the class is numeric:

select(surveys, where(is.numeric))

# A tibble: 16,878 × 7
   record_id month   day  year plot_id hindfoot_length weight
       <dbl> <dbl> <dbl> <dbl>   <dbl>           <dbl>  <dbl>
 1         1     7    16  1977       2              32     NA
 2         2     7    16  1977       3              33     NA
 3         3     7    16  1977       2              37     NA
 4         4     7    16  1977       7              36     NA
 5         5     7    16  1977       3              35     NA
 6         6     7    16  1977       1              14     NA
 7         7     7    16  1977       2              NA     NA
 8         8     7    16  1977       1              37     NA
 9         9     7    16  1977       1              34     NA
10        10     7    16  1977       6              20     NA
# … with 16,868 more rows

Instead of giving names or positions of columns, we instead pass the where() function with the name of another function inside it, in this case is.numeric(), and we get all the columns for which that function returns TRUE.

We can use this to select any columns that have any NA values in them:

select(surveys, where(anyNA))

# A tibble: 16,878 × 7
   species_id sex   hindfoot_length weight genus       species  taxa  
   <chr>      <chr>           <dbl>  <dbl> <chr>       <chr>    <chr> 
 1 NL         M                  32     NA Neotoma     albigula Rodent
 2 NL         M                  33     NA Neotoma     albigula Rodent
 3 DM         F                  37     NA Dipodomys   merriami Rodent
 4 DM         M                  36     NA Dipodomys   merriami Rodent
 5 DM         M                  35     NA Dipodomys   merriami Rodent
 6 PF         M                  14     NA Perognathus flavus   Rodent
 7 PE         F                  NA     NA Peromyscus  eremicus Rodent
 8 DM         M                  37     NA Dipodomys   merriami Rodent
 9 DM         F                  34     NA Dipodomys   merriami Rodent
10 PF         F                  20     NA Perognathus flavus   Rodent
# … with 16,868 more rows

filter()

The filter() function is used to select rows that meet certain criteria. To get all the rows where the value of year is equal to 1985, we would run the following:

filter(surveys, year == 1985)

# A tibble: 1,438 × 13
   record_id month   day  year plot_id species_id sex   hindfoot_length weight
       <dbl> <dbl> <dbl> <dbl>   <dbl> <chr>      <chr>           <dbl>  <dbl>
 1      9790     1    19  1985      16 RM         F                  16      4
 2      9791     1    19  1985      17 OT         F                  20     16
 3      9792     1    19  1985       6 DO         M                  35     48
 4      9793     1    19  1985      12 DO         F                  35     40
 5      9794     1    19  1985      24 RM         M                  16      4
 6      9795     1    19  1985      12 DO         M                  34     48
 7      9796     1    19  1985       6 DM         F                  37     35
 8      9797     1    19  1985      14 DM         M                  36     45
 9      9798     1    19  1985       6 DM         F                  36     38
10      9799     1    19  1985      19 RM         M                  16      4
# … with 1,428 more rows, and 4 more variables: genus <chr>, species <chr>,
#   taxa <chr>, plot_type <chr>

The == sign means “is equal to”. There are several other operators we can use: >, >=, <, <=, and != (not equal to). Another useful operator is %in%, which asks if the value on the lefthand side is found anywhere in the vector on the righthand side. For example, to get rows with specific species_id values, we could run:

filter(surveys, species_id %in% c("RM", "DO"))

# A tibble: 2,835 × 13
   record_id month   day  year plot_id species_id sex   hindfoot_length weight
       <dbl> <dbl> <dbl> <dbl>   <dbl> <chr>      <chr>           <dbl>  <dbl>
 1        68     8    19  1977       8 DO         F                  32     52
 2       292    10    17  1977       3 DO         F                  36     33
 3       294    10    17  1977       3 DO         F                  37     50
 4       311    10    17  1977      19 RM         M                  18     13
 5       317    10    17  1977      17 DO         F                  32     48
 6       323    10    17  1977      17 DO         F                  33     31
 7       337    10    18  1977       8 DO         F                  35     41
 8       356    11    12  1977       1 DO         F                  32     44
 9       378    11    12  1977       1 DO         M                  33     48
10       397    11    13  1977      17 RM         F                  16      7
# … with 2,825 more rows, and 4 more variables: genus <chr>, species <chr>,
#   taxa <chr>, plot_type <chr>

We can also use multiple conditions in one filter() statement. Here we will get rows with a year less than or equal to 1988 and whose hindfoot length values are not NA. The ! before the is.na() function means “not”.

filter(surveys, year <= 1988 & !is.na(hindfoot_length))

# A tibble: 12,779 × 13
   record_id month   day  year plot_id species_id sex   hindfoot_length weight
       <dbl> <dbl> <dbl> <dbl>   <dbl> <chr>      <chr>           <dbl>  <dbl>
 1         1     7    16  1977       2 NL         M                  32     NA
 2         2     7    16  1977       3 NL         M                  33     NA
 3         3     7    16  1977       2 DM         F                  37     NA
 4         4     7    16  1977       7 DM         M                  36     NA
 5         5     7    16  1977       3 DM         M                  35     NA
 6         6     7    16  1977       1 PF         M                  14     NA
 7         8     7    16  1977       1 DM         M                  37     NA
 8         9     7    16  1977       1 DM         F                  34     NA
 9        10     7    16  1977       6 PF         F                  20     NA
10        11     7    16  1977       5 DS         F                  53     NA
# … with 12,769 more rows, and 4 more variables: genus <chr>, species <chr>,
#   taxa <chr>, plot_type <chr>

The pipe: %>%

What happens if we want to both select() and filter() our data? We have a couple options. First, we could use nested functions:

filter(select(surveys, -day), month >= 7)

# A tibble: 8,244 × 12
   record_id month  year plot_id species_id sex   hindfoot_length weight genus  
       <dbl> <dbl> <dbl>   <dbl> <chr>      <chr>           <dbl>  <dbl> <chr>  
 1         1     7  1977       2 NL         M                  32     NA Neotoma
 2         2     7  1977       3 NL         M                  33     NA Neotoma
 3         3     7  1977       2 DM         F                  37     NA Dipodo…
 4         4     7  1977       7 DM         M                  36     NA Dipodo…
 5         5     7  1977       3 DM         M                  35     NA Dipodo…
 6         6     7  1977       1 PF         M                  14     NA Perogn…
 7         7     7  1977       2 PE         F                  NA     NA Peromy…
 8         8     7  1977       1 DM         M                  37     NA Dipodo…
 9         9     7  1977       1 DM         F                  34     NA Dipodo…
10        10     7  1977       6 PF         F                  20     NA Perogn…
# … with 8,234 more rows, and 3 more variables: species <chr>, taxa <chr>,
#   plot_type <chr>

R will evaluate statements from the inside out. First, select() will operate on the surveys data.frame, removing the column day. The resulting data.frame is then used as the first argument for filter(), which selects rows with a month greater than or equal to 7.

Nested functions can be very difficult to read with only a few functions, and nearly impossible when many functions are done at once. An alternative approach is to create intermediate objects:

surveys_noday <- select(surveys, -day)
filter(surveys_noday, month >= 7)

# A tibble: 8,244 × 12
   record_id month  year plot_id species_id sex   hindfoot_length weight genus  
       <dbl> <dbl> <dbl>   <dbl> <chr>      <chr>           <dbl>  <dbl> <chr>  
 1         1     7  1977       2 NL         M                  32     NA Neotoma
 2         2     7  1977       3 NL         M                  33     NA Neotoma
 3         3     7  1977       2 DM         F                  37     NA Dipodo…
 4         4     7  1977       7 DM         M                  36     NA Dipodo…
 5         5     7  1977       3 DM         M                  35     NA Dipodo…
 6         6     7  1977       1 PF         M                  14     NA Perogn…
 7         7     7  1977       2 PE         F                  NA     NA Peromy…
 8         8     7  1977       1 DM         M                  37     NA Dipodo…
 9         9     7  1977       1 DM         F                  34     NA Dipodo…
10        10     7  1977       6 PF         F                  20     NA Perogn…
# … with 8,234 more rows, and 3 more variables: species <chr>, taxa <chr>,
#   plot_type <chr>

This approach is easier to read, since we can see the steps in order, but after enough steps, we are left with a cluttered mess of intermediate objects, often with confusing names.

An elegant solution to this problem is an operator called the pipe, which looks like %>%. You can insert it by using the keyboard shortcut Shift+Cmd+M (Mac) or Shift+Ctrl+M (Windows). Here’s how you could use a pipe to select and filter in one step:

surveys %>% 
  select(-day) %>% 
  filter(month >= 7)

# A tibble: 8,244 × 12
   record_id month  year plot_id species_id sex   hindfoot_length weight genus  
       <dbl> <dbl> <dbl>   <dbl> <chr>      <chr>           <dbl>  <dbl> <chr>  
 1         1     7  1977       2 NL         M                  32     NA Neotoma
 2         2     7  1977       3 NL         M                  33     NA Neotoma
 3         3     7  1977       2 DM         F                  37     NA Dipodo…
 4         4     7  1977       7 DM         M                  36     NA Dipodo…
 5         5     7  1977       3 DM         M                  35     NA Dipodo…
 6         6     7  1977       1 PF         M                  14     NA Perogn…
 7         7     7  1977       2 PE         F                  NA     NA Peromy…
 8         8     7  1977       1 DM         M                  37     NA Dipodo…
 9         9     7  1977       1 DM         F                  34     NA Dipodo…
10        10     7  1977       6 PF         F                  20     NA Perogn…
# … with 8,234 more rows, and 3 more variables: species <chr>, taxa <chr>,
#   plot_type <chr>
…
surveys_sub <- surveys %>% 
  select(-day) %>% 
  filter(month >= 7)

A good approach is to build a pipeline step by step prior to assignment. You add functions to the pipeline as you go, with the results printing in the console for you to view. Once you’re satisfied with your final result, go back and add the assignment arrow statement at the start. This approach is very interactive, allowing you to see the results of each step as you build the pipeline, and produces nicely readable code.

Making new columns with mutate()

Another common task is creating a new column based on values in existing columns. For example, we could add a new column that has the weight in kilograms instead of grams:

surveys %>% 
  mutate(weight_kg = weight / 1000)

# A tibble: 16,878 × 14
   record_id month   day  year plot_id species_id sex   hindfoot_length weight
       <dbl> <dbl> <dbl> <dbl>   <dbl> <chr>      <chr>           <dbl>  <dbl>
 1         1     7    16  1977       2 NL         M                  32     NA
 2         2     7    16  1977       3 NL         M                  33     NA
 3         3     7    16  1977       2 DM         F                  37     NA
 4         4     7    16  1977       7 DM         M                  36     NA
 5         5     7    16  1977       3 DM         M                  35     NA
 6         6     7    16  1977       1 PF         M                  14     NA
 7         7     7    16  1977       2 PE         F                  NA     NA
 8         8     7    16  1977       1 DM         M                  37     NA
 9         9     7    16  1977       1 DM         F                  34     NA
10        10     7    16  1977       6 PF         F                  20     NA
# … with 16,868 more rows, and 5 more variables: genus <chr>, species <chr>,
#   taxa <chr>, plot_type <chr>, weight_kg <dbl>

You can create multiple columns in one mutate() call, and they will get created in the order you write them. This means you can even reference the first new column in the second new column:

surveys %>% 
  mutate(weight_kg = weight / 1000,
         weight_lbs = weight_kg * 2.2)

# A tibble: 16,878 × 15
   record_id month   day  year plot_id species_id sex   hindfoot_length weight
       <dbl> <dbl> <dbl> <dbl>   <dbl> <chr>      <chr>           <dbl>  <dbl>
 1         1     7    16  1977       2 NL         M                  32     NA
 2         2     7    16  1977       3 NL         M                  33     NA
 3         3     7    16  1977       2 DM         F                  37     NA
 4         4     7    16  1977       7 DM         M                  36     NA
 5         5     7    16  1977       3 DM         M                  35     NA
 6         6     7    16  1977       1 PF         M                  14     NA
 7         7     7    16  1977       2 PE         F                  NA     NA
 8         8     7    16  1977       1 DM         M                  37     NA
 9         9     7    16  1977       1 DM         F                  34     NA
10        10     7    16  1977       6 PF         F                  20     NA
# … with 16,868 more rows, and 6 more variables: genus <chr>, species <chr>,
#   taxa <chr>, plot_type <chr>, weight_kg <dbl>, weight_lbs <dbl>

We can also use multiple columns to create a single column. For example, it’s often good practice to keep the components of a date in separate columns until necessary, as we’ve done here. This is because programs like Excel can do automatic things with dates in a way that is not reproducible and sometimes hard to notice. However, now that we are working in R, we can safely put together a date column.

To put together the columns into something that looks like a date, we can use the paste() function, which takes arguments of the items to paste together, as well as the argument sep, which is the character used to separate the items.

surveys %>% 
  mutate(date = paste(year, month, day, sep = "-"))

# A tibble: 16,878 × 14
   record_id month   day  year plot_id species_id sex   hindfoot_length weight
       <dbl> <dbl> <dbl> <dbl>   <dbl> <chr>      <chr>           <dbl>  <dbl>
 1         1     7    16  1977       2 NL         M                  32     NA
 2         2     7    16  1977       3 NL         M                  33     NA
 3         3     7    16  1977       2 DM         F                  37     NA
 4         4     7    16  1977       7 DM         M                  36     NA
 5         5     7    16  1977       3 DM         M                  35     NA
 6         6     7    16  1977       1 PF         M                  14     NA
 7         7     7    16  1977       2 PE         F                  NA     NA
 8         8     7    16  1977       1 DM         M                  37     NA
 9         9     7    16  1977       1 DM         F                  34     NA
10        10     7    16  1977       6 PF         F                  20     NA
# … with 16,868 more rows, and 5 more variables: genus <chr>, species <chr>,
#   taxa <chr>, plot_type <chr>, date <chr>
…
