…
The last thing to do is extract the year, month, and day values from our `date` column. `lubridate` has functions to extract each component of a date. We will then get rid of the `date` column, since it doesn't appear in our original `surveys` data, and we can always remake it from the component columns.


```r
surveys_new <- surveys_new %>% 
  mutate(year = year(date),
         month = month(date),
         day = day(date)) %>% 
  select(-date)

surveys_new
```

```{.output}
# A tibble: 18,676 × 9
   record_id plot_id species_id sex   hindfoot_length weight  year month   day
       <dbl>   <dbl> <chr>      <chr>           <dbl>  <dbl> <dbl> <dbl> <int>
 1     16879       1 DM         F                  37     35  1990     1     6
 2     16880       1 OL         M                  21     28  1990     1     6
 3     16881       6 PF         M                  16      7  1990     1     6
 4     16882      23 RM         F                  17      9  1990     1     6
 5     16883      12 RM         M                  17     10  1990     1     6
 6     16884      24 RM         M                  17      9  1990     1     6
 7     16885      12 SF         M                  25     35  1990     1     6
 8     16886      24 SH         F                  30     73  1990     1     6
 9     16887      12 SF         M                  28     44  1990     1     6
10     16888      17 DO         M                  36     55  1990     1     6
# … with 18,666 more rows
```
…
ℹ Use `spec()` to retrieve the full column specification for this data.
ℹ Specify the column types or set `show_col_types = FALSE` to quiet this message.
```

```r
species_new
```

```{.output}
# A tibble: 54 × 3
   species_id species_name                    taxa   
   <chr>      <chr>                           <chr>  
 1 AB         Amphispiza bilineata            Bird   
 2 AH         Ammospermophilus harrisi        Rodent 
 3 AS         Ammodramus savannarum           Bird   
 4 BA         Baiomys taylori                 Rodent 
 5 CB         Campylorhynchus brunneicapillus Bird   
 6 CM         Calamospiza melanocorys         Bird   
 7 CQ         Callipepla squamata             Bird   
 8 CS         Crotalus scutalatus             Reptile
 9 CT         Cnemidophorus tigris            Reptile
10 CU         Cnemidophorus uniparens         Reptile
# … with 44 more rows
```
…
One thing we might notice is that our species and genus are combined into one column called `species_name`, whereas in our old data, we had separate columns for `genus` and `species`. It is fairly common to have data in one column that could be separated into two or more columns. Luckily, `tidyr` has a convenient function for solving this problem, called `separate()`.

We pipe `species_new` into the `separate()` function, then give it several other arguments. First, the name of the column to be separated, `species_name`. Next, we give the argument `into` a character vector of the new columns we want. Finally, we give a string for what is currently separating each of the new values in the current column. In `species_name`, the genus and species are separated by a space.


```r
species_new <- species_new %>%
  separate(species_name, into = c("genus", "species"), sep = " ")

species_new
```

```{.output}
# A tibble: 54 × 4
   species_id genus            species         taxa   
   <chr>      <chr>            <chr>           <chr>  
 1 AB         Amphispiza       bilineata       Bird   
 2 AH         Ammospermophilus harrisi         Rodent 
 3 AS         Ammodramus       savannarum      Bird   
 4 BA         Baiomys          taylori         Rodent 
 5 CB         Campylorhynchus  brunneicapillus Bird   
 6 CM         Calamospiza      melanocorys     Bird   
 7 CQ         Callipepla       squamata        Bird   
 8 CS         Crotalus         scutalatus      Reptile
 9 CT         Cnemidophorus    tigris          Reptile
10 CU         Cnemidophorus    uniparens       Reptile
# … with 44 more rows
```
…
**Hint**: the function `everything()` means "every column" when selecting columns.

:::::::::::::::::::::::: solution 


```r
plots_new <- plots_new %>% 
  pivot_longer(cols = everything(), names_to = "plot_id", values_to = "plot_type")

plots_new
```

```{.output}
# A tibble: 24 × 2
   plot_id plot_type                
   <chr>   <chr>                    
 1 Plot 1  Spectab exclosure        
 2 Plot 2  Control                  
 3 Plot 3  Long-term Krat Exclosure 
 4 Plot 4  Control                  
 5 Plot 5  Rodent Exclosure         
 6 Plot 6  Short-term Krat Exclosure
 7 Plot 7  Rodent Exclosure         
 8 Plot 8  Control                  
 9 Plot 9  Spectab exclosure        
10 Plot 10 Rodent Exclosure         
# … with 14 more rows
```
…
Our old `surveys` data had `plot_id` as a numeric variable, but ours is a character string with `"Plot "` in front of the number. This is a pretty common issue, but we can use a function from the `stringr` package to fix it.

We will use `mutate()` to modify the `plot_id` column, and we will replace it with the results of the `str_replace()` function. The first argument to `str_replace()` is the character vector we want to modify, which is the current `plot_id` column. Next is the string of characters that we want to replace, which is `"Plot "`, including the space at the end. Finally, we have the replacement string. Since we want to remove `"Plot "`, we replace it with a blank string `""`.


```r
plots_new <- plots_new %>% 
  mutate(plot_id = str_replace(plot_id, "Plot ", ""))

plots_new
```

```{.output}
# A tibble: 24 × 2
   plot_id plot_type                
   <chr>   <chr>                    
 1 1       Spectab exclosure        
 2 2       Control                  
 3 3       Long-term Krat Exclosure 
 4 4       Control                  
 5 5       Rodent Exclosure         
 6 6       Short-term Krat Exclosure
 7 7       Rodent Exclosure         
 8 8       Control                  
 9 9       Spectab exclosure        
10 10      Rodent Exclosure         
# … with 14 more rows
```

We successfully removed `"Plot "` from our `plot_id` column entries, so we are left with just the numbers. However, it is still a `character` column. The last step is to convert it to a numeric column.


```r
plots_new <- plots_new %>% 
  mutate(plot_id = as.numeric(plot_id))

plots_new
```

```{.output}
# A tibble: 24 × 2
   plot_id plot_type                
     <dbl> <chr>                    
 1       1 Spectab exclosure        
 2       2 Control                  
 3       3 Long-term Krat Exclosure 
 4       4 Control                  
 5       5 Rodent Exclosure         
 6       6 Short-term Krat Exclosure
 7       7 Rodent Exclosure         
 8       8 Control                  
 9       9 Spectab exclosure        
10      10 Rodent Exclosure         
# … with 14 more rows
```
…
There are several types of joins in the `dplyr` package, which you can [read more about here](https://stat545.com/join-cheatsheet.html). We will use a function called `left_join()`, which takes two dataframes and adds the columns from the second dataframe to the first dataframe, matching rows based on the column name supplied to the `by` argument.


```r
left_join(surveys_new, plots_new, by = "plot_id")
```

```{.output}
# A tibble: 18,676 × 10
   record_id plot_id species_id sex   hindfoot_length weight  year month   day
       <dbl>   <dbl> <chr>      <chr>           <dbl>  <dbl> <dbl> <dbl> <int>
 1     16879       1 DM         F                  37     35  1990     1     6
 2     16880       1 OL         M                  21     28  1990     1     6
 3     16881       6 PF         M                  16      7  1990     1     6
 4     16882      23 RM         F                  17      9  1990     1     6
 5     16883      12 RM         M                  17     10  1990     1     6
 6     16884      24 RM         M                  17      9  1990     1     6
 7     16885      12 SF         M                  25     35  1990     1     6
 8     16886      24 SH         F                  30     73  1990     1     6
 9     16887      12 SF         M                  28     44  1990     1     6
10     16888      17 DO         M                  36     55  1990     1     6
# … with 18,666 more rows, and 1 more variable: plot_type <chr>
```
…
```r
surveys_new <- left_join(surveys_new, plots_new, by = "plot_id")
```

We can repeat this process to get the information from `species_new`. `surveys_new` and `species_new` both have a `species_id` column, but we would like to add the `genus`, `species`, and `taxa` information to `surveys_new`.


```r
surveys_new <- left_join(surveys_new, species_new, by = "species_id")

surveys_new
```

```{.output}
# A tibble: 18,676 × 13
   record_id plot_id species_id sex   hindfoot_length weight  year month   day
       <dbl>   <dbl> <chr>      <chr>           <dbl>  <dbl> <dbl> <dbl> <int>
 1     16879       1 DM         F                  37     35  1990     1     6
 2     16880       1 OL         M                  21     28  1990     1     6
 3     16881       6 PF         M                  16      7  1990     1     6
 4     16882      23 RM         F                  17      9  1990     1     6
 5     16883      12 RM         M                  17     10  1990     1     6
 6     16884      24 RM         M                  17      9  1990     1     6
 7     16885      12 SF         M                  25     35  1990     1     6
 8     16886      24 SH         F                  30     73  1990     1     6
 9     16887      12 SF         M                  28     44  1990     1     6
10     16888      17 DO         M                  36     55  1990     1     6
# … with 18,666 more rows, and 4 more variables: plot_type <chr>, genus <chr>,
#   species <chr>, taxa <chr>
```
…
ℹ Use `spec()` to retrieve the full column specification for this data.
ℹ Specify the column types or set `show_col_types = FALSE` to quiet this message.
```

Now we can use the `bind_rows()` function to bind the rows of our two data.frames together. The fact that our columns are not in the same order doesn't matter, `bind_rows()` will detect thatt the column names are the same, and will rearrange them to match the first data.frame.


```r
surveys_complete <- bind_rows(surveys, surveys_new)

surveys_complete
```

```{.output}
# A tibble: 35,554 × 13
   record_id month   day  year plot_id species_id sex   hindfoot_length weight
       <dbl> <dbl> <dbl> <dbl>   <dbl> <chr>      <chr>           <dbl>  <dbl>
 1         1     7    16  1977       2 NL         M                  32     NA
 2         2     7    16  1977       3 NL         M                  33     NA
 3         3     7    16  1977       2 DM         F                  37     NA
 4         4     7    16  1977       7 DM         M                  36     NA
 5         5     7    16  1977       3 DM         M                  35     NA
 6         6     7    16  1977       1 PF         M                  14     NA
 7         7     7    16  1977       2 PE         F                  NA     NA
 8         8     7    16  1977       1 DM         M                  37     NA
 9         9     7    16  1977       1 DM         F                  34     NA
10        10     7    16  1977       6 PF         F                  20     NA
# … with 35,544 more rows, and 4 more variables: genus <chr>, species <chr>,
#   taxa <chr>, plot_type <chr>
```

We might be interested in indicating which rows of our data came from which source: the old data or the new. We can name the data.frames inside `bind_rows()`, and then give a new argument `.id`. This will give us a new column called `source` that contains a value of `"old"` for rows that came from `surveys`, and a value of `"new"` for rows that came from `surveys_new`.


```r
surveys_complete <- bind_rows(old = surveys, new = surveys_new, .id = "source")

surveys_complete
```

```{.output}
# A tibble: 35,554 × 14
   source record_id month   day  year plot_id species_id sex   hindfoot_length
   <chr>      <dbl> <dbl> <dbl> <dbl>   <dbl> <chr>      <chr>           <dbl>
 1 old            1     7    16  1977       2 NL         M                  32
 2 old            2     7    16  1977       3 NL         M                  33
 3 old            3     7    16  1977       2 DM         F                  37
 4 old            4     7    16  1977       7 DM         M                  36
 5 old            5     7    16  1977       3 DM         M                  35
 6 old            6     7    16  1977       1 PF         M                  14
 7 old            7     7    16  1977       2 PE         F                  NA
 8 old            8     7    16  1977       1 DM         M                  37
 9 old            9     7    16  1977       1 DM         F                  34
10 old           10     7    16  1977       6 PF         F                  20
# … with 35,544 more rows, and 5 more variables: weight <dbl>, genus <chr>,
#   species <chr>, taxa <chr>, plot_type <chr>
```
…
